Using the tidytreatment package with BART (binary outcome)
…
#* The posterior samples are kept small to manage size on CRAN

Extract the posterior (tidy style)

Methods for extracting the posterior in a tidy format is included in
the tidytreatment.

posterior_fitted <- epred_draws(te_model, value = "fit", scale = "prob", include_newdata = FALSE)
# include_newdata = FALSE, avoids returning the newdata with the fitted values
# as it is so large. newdata argument must be specified for this option in BART models. 
# The `.row` variable makes sure we know which row in the newdata the fitted
# value came from (if we dont include the data in the result).

posterior_fitted
#> # A tibble: 20,000 × 5
#> # Groups:   .row [100]
#>     .row .chain .iteration .draw   fit
#>    <int>  <int>      <int> <int> <dbl>
#>  1     1     NA         NA     1  4.21
#>  2     2     NA         NA     1 -2.49
#>  3     3     NA         NA     1 -2.10
#>  4     4     NA         NA     1  3.33
#>  5     5     NA         NA     1  1.22
#>  6     6     NA         NA     1 -6.74
#>  7     7     NA         NA     1  3.66
#>  8     8     NA         NA     1 10.5 
#>  9     9     NA         NA     1  9.37
#> 10    10     NA         NA     1  8.21
#> # ℹ 19,990 more rows
…
